{
  "name": "Bone Shop",
  "sections": [ { "items": [
    {
      "id": "ItemId.ECTO_TOKEN",
      "price": 0,
      "stack": 3,
      "costItems": [ [ { "id": "ItemId.BONES",  "amount": 1 } ] ]
    },
    {
      "id": "ItemId.ECTO_TOKEN",
      "price": 0,
      "stack": 3,
      "costItems": [ [ { "id": "ItemId.BIG_BONES",  "amount": 1 } ] ]
    },
    {
      "id": "ItemId.ECTO_TOKEN",
      "price": 0,
      "stack": 3,
      "costItems": [ [ { "id": "ItemId.BABYDRAGON_BONES",  "amount": 1 } ] ]
    },
    {
      "id": "ItemId.ECTO_TOKEN",
      "price": 0,
      "stack": 5,
      "costItems": [ [ { "id": "ItemId.WYRM_BONES",  "amount": 1 } ] ]
    },
    {
      "id": "ItemId.ECTO_TOKEN",
      "price": 0,
      "stack": 10,
      "costItems": [ [ { "id": "ItemId.DRAGON_BONES",  "amount": 1 } ] ]
    },
    {
      "id": "ItemId.ECTO_TOKEN",
      "price": 0,
      "stack": 15,
      "costItems": [ [ { "id": "ItemId.DAGANNOTH_BONES",  "amount": 1 } ] ]
    },
    {
      "id": "ItemId.ECTO_TOKEN",
      "price": 0,
      "stack": 15,
      "costItems": [ [ { "id": "ItemId.LAVA_DRAGON_BONES",  "amount": 1 } ] ]
    },
    {
      "id": "ItemId.ECTO_TOKEN",
      "price": 0,
      "stack": 20,
      "costItems": [ [ { "id": "ItemId.DRAKE_BONES",  "amount": 1 } ] ]
    },
    {
      "id": "ItemId.ECTO_TOKEN",
      "price": 0,
      "stack": 20,
      "costItems": [ [ { "id": "ItemId.WYVERN_BONES",  "amount": 1 } ] ]
    },
    {
      "id": "ItemId.ECTO_TOKEN",
      "price": 0,
      "stack": 20,
      "costItems": [ [ { "id": "ItemId.HYDRA_BONES",  "amount": 1 } ] ]
    },
    {
      "id": "ItemId.ECTO_TOKEN",
      "price": 0,
      "stack": 25,
      "costItems": [ [ { "id": "ItemId.SUPERIOR_DRAGON_BONES",  "amount": 1 } ] ]
    }
  ] } ]
}
