{
  "name": "Team Capes Shop",
  "sellExchangeMultiplier": 1.0,
  "sections": [ { "items": [
    { "id": "ItemId.TEAM_1_CAPE" },
    { "id": "ItemId.TEAM_2_CAPE" },
    { "id": "ItemId.TEAM_3_CAPE" },
    { "id": "ItemId.TEAM_4_CAPE" },
    { "id": "ItemId.TEAM_5_CAPE" },
    { "id": "ItemId.TEAM_6_CAPE" },
    { "id": "ItemId.TEAM_7_CAPE" },
    { "id": "ItemId.TEAM_8_CAPE" },
    { "id": "ItemId.TEAM_9_CAPE" },
    { "id": "ItemId.TEAM_10_CAPE" },
    { "id": "ItemId.TEAM_11_CAPE" },
    { "id": "ItemId.TEAM_12_CAPE" },
    { "id": "ItemId.TEAM_13_CAPE" },
    { "id": "ItemId.TEAM_14_CAPE" },
    { "id": "ItemId.TEAM_15_CAPE" },
    { "id": "ItemId.TEAM_16_CAPE" },
    { "id": "ItemId.TEAM_17_CAPE" },
    { "id": "ItemId.TEAM_18_CAPE" },
    { "id": "ItemId.TEAM_19_CAPE" },
    { "id": "ItemId.TEAM_20_CAPE" },
    { "id": "ItemId.TEAM_21_CAPE" },
    { "id": "ItemId.TEAM_22_CAPE" },
    { "id": "ItemId.TEAM_23_CAPE" },
    { "id": "ItemId.TEAM_24_CAPE" },
    { "id": "ItemId.TEAM_25_CAPE" },
    { "id": "ItemId.TEAM_26_CAPE" },
    { "id": "ItemId.TEAM_27_CAPE" },
    { "id": "ItemId.TEAM_28_CAPE" },
    { "id": "ItemId.TEAM_29_CAPE" },
    { "id": "ItemId.TEAM_30_CAPE" },
    { "id": "ItemId.TEAM_31_CAPE" },
    { "id": "ItemId.TEAM_32_CAPE" },
    { "id": "ItemId.TEAM_33_CAPE" },
    { "id": "ItemId.TEAM_34_CAPE" },
    { "id": "ItemId.TEAM_35_CAPE" },
    { "id": "ItemId.TEAM_36_CAPE" },
    { "id": "ItemId.TEAM_37_CAPE" },
    { "id": "ItemId.TEAM_38_CAPE" },
    { "id": "ItemId.TEAM_39_CAPE" },
    { "id": "ItemId.TEAM_40_CAPE" },
    { "id": "ItemId.TEAM_41_CAPE" },
    { "id": "ItemId.TEAM_42_CAPE" },
    { "id": "ItemId.TEAM_43_CAPE" },
    { "id": "ItemId.TEAM_44_CAPE" },
    { "id": "ItemId.TEAM_45_CAPE" },
    { "id": "ItemId.TEAM_46_CAPE" },
    { "id": "ItemId.TEAM_47_CAPE" },
    { "id": "ItemId.TEAM_48_CAPE" },
    { "id": "ItemId.TEAM_49_CAPE" },
    { "id": "ItemId.TEAM_50_CAPE" },
    { "id": "ItemId.TEAM_CAPE_ZERO", "price": 4500000 },
    { "id": "ItemId.TEAM_CAPE_X", "price": 2000000 },
    { "id": "ItemId.TEAM_CAPE_I", "price": 2000000 }
  ] } ]
}
