{
  "name": "Supplies Shop",
  "sellExchangeMultiplier": 1.0,
  "buyType": "ALL_TRADABLE",
  "sections": [ 
    {
      "name": "Food",
      "items": [
        { "id": "ItemId.LOBSTER", "price": 250 },
        { "id": "ItemId.SWORDFISH", "price": 500 },
        { "id": "ItemId.ANCHOVY_PIZZA", "price": 1000 },
        { "id": "ItemId.PINEAPPLE_PIZZA", "price": 1000 },
        { "id": "ItemId.PURPLE_SWEETS", "price": 10000 },
        { "id": "ItemId.DWARVEN_ROCK_CAKE_7510", "price": 1000000 },
        { "id": "ItemId.BLIGHTED_DARK_CRAB_60019", "price": 200 },
        { "id": "ItemId.BLIGHTED_ANGLERFISH", "price": 2000 },
        { "id": "ItemId.BLIGHTED_KARAMBWAN", "price": 200 }
      ]
    },
    {
      "name": "Drinks",
      "items": [
        { "id": "ItemId.ATTACK_POTION_4", "price": 500 },
        { "id": "ItemId.DEFENCE_POTION_4", "price": 500 },
        { "id": "ItemId.STRENGTH_POTION_4", "price": 1000 },
        { "id": "ItemId.PRAYER_POTION_4", "price": 10000 },
        { "id": "ItemId.SUPERANTIPOISON_4", "price": 500 },
        { "id": "ItemId.BLIGHTED_SUPER_RESTORE_4", "price": 2000 },
        { "id": "ItemId.BLIGHTED_SUPER_COMBAT_4_60011", "price": 4000 },
        { "id": "ItemId.BLIGHTED_BASTION_4_60021", "price": 4000 },
        { "id": "ItemId.BLIGHTED_BATTLEMAGE_4_60029", "price": 4000 }
      ]
    },
    {
      "name": "Misc",
      "items": [
        { "id": "ItemId.TELEPORT_TO_HOUSE", "price": 2500 },
        { "id": "ItemId.VARROCK_TELEPORT", "price": 2500 },
        { "id": "ItemId.LUMBRIDGE_TELEPORT", "price": 2500 },
        { "id": "ItemId.FALADOR_TELEPORT", "price": 2500 },
        { "id": "ItemId.CAMELOT_TELEPORT", "price": 2500 },
        { "id": "ItemId.ARDOUGNE_TELEPORT", "price": 2500 },
        { "id": "ItemId.TAVERLEY_TELEPORT", "price": 2500 },
        { "id": "ItemId.RELLEKKA_TELEPORT", "price": 2500 },
        { "id": "ItemId.TROLLHEIM_TELEPORT", "price": 2500 },
        { "id": "ItemId.KHARYRLL_TELEPORT", "price": 2500 },
        { "id": "ItemId.PADDEWWA_TELEPORT", "price": 2500 },
        { "id": "ItemId.HARMONY_ISLAND_TELEPORT", "price": 2500 },
        { "id": "ItemId.CARRALLANGAR_TELEPORT", "price": 2500 },
        { "id": "ItemId.DAREEYAK_TELEPORT", "price": 2500 },
        { "id": "ItemId.ANNAKARL_TELEPORT", "price": 2500 },
        { "id": "ItemId.GHORROCK_TELEPORT", "price": 2500 },
        { "id": "ItemId.WILDERNESS_CRABS_TELEPORT", "price": 2500 },
        { "id": "ItemId.LUMBERYARD_TELEPORT" },
        { "id": "ItemId.GAMES_NECKLACE_8", "price": 1000 },
        { "id": "ItemId.DIGSITE_PENDANT_5", "price": 1000 },
        { "id": "ItemId.BURNING_AMULET_5", "price": 10000 },
        { "id": "ItemId.TELEPORT_CRYSTAL_4", "price": 10000 },
        { "id": "ItemId.LOCKPICK", "price": 1000 },
        { "id": "ItemId.CLEANING_CLOTH", "price": 50000 }
      ]
    },
    {
      "name": "Bought",
      "items": [ ]
    }
  ]
}
